{
  "data": [
    {
      "name": "kl",
      "prenom": "bj",
      "email": "B@GU",
      "pass": "",
      "adress": "jk",
      "city": "fds"
    },
    {
      "name": "kl",
      "prenom": "bj",
      "email": "B@GU",
      "pass": "",
      "adress": "jk",
      "city": "fds"
    },
    {
      "name": "kl",
      "prenom": "bj",
      "email": "B@GU",
      "pass": "",
      "adress": "jk",
      "city": "fds"
    },
    {
      "name": "kl",
      "prenom": "bj",
      "email": "B@GU",
      "pass": "",
      "adress": "jk",
      "city": "fds"
    },
    {
      "name": "kl",
      "prenom": "bj",
      "email": "B@GU",
      "pass": "",
      "adress": "jk",
      "city": "fds"
    },
    {
      "name": "kl",
      "prenom": "bj",
      "email": "B@GU",
      "pass": "",
      "adress": "jk",
      "city": "fds"
    },
    {
      "name": "zazer",
      "prenom": "jhio",
      "email": "com@com",
      "pass": "greg",
      "adress": "etetety",
      "city": "fhhfhfg"
    },
    {
      "name": "zazer",
      "prenom": "jhio",
      "email": "com@com",
      "pass": "",
      "adress": "etetety",
      "city": "fhhfhfg"
    },
    {
      "name": "zazer",
      "prenom": "jhio",
      "email": "com@com",
      "pass": "",
      "adress": "etetety",
      "city": "fhhfhfg"
    },
    {
      "name": "zazer",
      "prenom": "jhio",
      "email": "com@com",
      "pass": "",
      "adress": "etetety",
      "city": "fhhfhfg"
    },
    {
      "name": "zazer",
      "prenom": "jhio",
      "email": "com@com",
      "pass": "",
      "adress": "etetety",
      "city": "fhhfhfg"
    },
    {
      "name": "zazer",
      "prenom": "jhio",
      "email": "com@com",
      "pass": "",
      "adress": "etetety",
      "city": "fhhfhfg"
    },
    {
      "name": "zazer",
      "prenom": "jhio",
      "email": "com@com",
      "pass": "",
      "adress": "etetety",
      "city": "fhhfhfg"
    },
    {
      "name": "Luquet",
      "prenom": "Alexandre",
      "email": "aluq93@gmail.com",
      "pass": "",
      "adress": "10 Allée de la butte aux cailles",
      "city": "NOISY LE GRAND"
    },
    {
      "name": "teste",
      "prenom": "geste",
      "email": "test@gmail.com",
      "pass": "hbjjh",
      "adress": "3 rue test",
      "city": "NOISY"
    },
    {
      "name": "teste",
      "prenom": "geste",
      "email": "test@gmail.com",
      "pass": "jnnl",
      "adress": "3 rue test",
      "city": "NOISY"
    }
  ]
}